level,required_experience,hit_dice,spells_lvl_1,spells_lvl_2,spells_lvl_3,spells_lvl_4,spells_lvl_5,spells_lvl_6
1,0,1d6,0,0,0,0,0,0
2,1500,2d6,1,0,0,0,0,0
3,3000,3d6,2,0,0,0,0,0
4,6000,4d6,2,1,0,0,0,0
5,120000,5d6,2,2,0,0,0,0
6,240000,6d6,2,2,1,0,0,0
7,480000,7d6,3,2,2,0,0,0
8,900000,8d6,3,2,2,1,0,0
9,180000,9d6,3,3,2,2,0,0
10,270000,9d6+1,3,3,2,2,1,0
11,360000,9d6+2,4,3,3,2,2,0
12,450000,9d6+3,4,4,3,2,2,1
13,540000,9d6+4,4,4,3,3,2,2
14,630000,9d6+5,4,4,4,3,2,2
15,720000,9d6+6,4,4,4,3,3,2
16,810000,9d6+7,5,4,4,3,3,2
17,900000,9d6+8,5,5,4,3,3,2
18,990000,9d6+9,5,5,4,4,3,3
19,1080000,9d6+10,6,5,4,4,3,3
20,1170000,9d6+11,6,5,5,4,3,3
